%YAML 1.1
%TAG !u! tag:unity3d.com,2011:
--- !u!78 &1
TagManager:
  serializedVersion: 2
  tags:
  - wall
  - door
  - droppedWeapon
  - ennemy
  - bullet
  - ennemyBullet
  - weapon
  - car
  layers:
  - Default
  - TransparentFX
  - Ignore Raycast
  - 
  - Water
  - UI
  - 
  - 
  - floor
  - Ennemy
  - wall
  - door
  - 
  - 
  - 
  - 
  - 
  - 
  - 
  - 
  - 
  - 
  - 
  - 
  - 
  - 
  - 
  - 
  - 
  - 
  - 
  - 
  m_SortingLayers:
  - name: background
    uniqueID: 1417433457
    locked: 0
  - name: Default
    uniqueID: 0
    locked: 0
  - name: player
    uniqueID: 3694563833
    locked: 0
  - name: UI
    uniqueID: 1680231027
    locked: 0
